{
    "resource": "/sendmail", 
    "path": "/sendmail/", 
    "httpMethod": "POST", 
    "headers": {
        "Accept": "*/*", 
        "CloudFront-Forwarded-Proto": "https", 
        "CloudFront-Is-Desktop-Viewer": "true", 
        "CloudFront-Is-Mobile-Viewer": "false", 
        "CloudFront-Is-SmartTV-Viewer": "false", 
        "CloudFront-Is-Tablet-Viewer": "false", 
        "CloudFront-Viewer-Country": "CH", 
        "content-type": "application/x-www-form-urlencoded", 
        "Host": "api-devsite.hutter.cloud", 
        "User-Agent": "curl/7.54.0", 
        "Via": "2.0 18e87eada05046c231b7f49230fa6dc4.cloudfront.net (CloudFront)", 
        "X-Amz-Cf-Id": "qy4cqvD76jZ5Uk04TnyERqizViAfHwC7AFNsliIwY-_RgY-d65ZsGg==", 
        "X-Amzn-Trace-Id": "Root=1-5cbed986-1c73d184278e157e930e1406", 
        "X-Forwarded-For": "212.51.159.27, 70.132.4.88", 
        "X-Forwarded-Port": "443", 
        "X-Forwarded-Proto": "https"
    }, 
    "multiValueHeaders": {
        "Accept": ["*/*"], 
        "CloudFront-Forwarded-Proto": ["https"], 
        "CloudFront-Is-Desktop-Viewer": ["true"], 
        "CloudFront-Is-Mobile-Viewer": ["false"], 
        "CloudFront-Is-SmartTV-Viewer": ["false"], 
        "CloudFront-Is-Tablet-Viewer": ["false"], 
        "CloudFront-Viewer-Country": ["CH"], 
        "content-type": ["application/x-www-form-urlencoded"], 
        "Host": ["api-devsite.hutter.cloud"], 
        "User-Agent": ["curl/7.54.0"], 
        "Via": ["2.0 18e87eada05046c231b7f49230fa6dc4.cloudfront.net (CloudFront)"], 
        "X-Amz-Cf-Id": ["qy4cqvD76jZ5Uk04TnyERqizViAfHwC7AFNsliIwY-_RgY-d65ZsGg=="], 
        "X-Amzn-Trace-Id": ["Root=1-5cbed986-1c73d184278e157e930e1406"], 
        "X-Forwarded-For": ["212.51.159.27, 70.132.4.88"], 
        "X-Forwarded-Port": ["443"], 
        "X-Forwarded-Proto": ["https"]
    }, 
    "queryStringParameters": "", 
    "multiValueQueryStringParameters": "", 
    "pathParameters": "", 
    "stageVariables": {
        "LambdaAlias": "public"
    }, 
    "requestContext": {
        "resourceId": "h7i9ox", 
        "resourcePath": "/sendmail", 
        "httpMethod": "POST", 
        "extendedRequestId": "YlbtFGmxoAMFzEw=", 
        "requestTime": "23/Apr/2019:09:23:18 +0000", 
        "path": "/sendmail/", 
        "accountId": "337261303015", 
        "protocol": "HTTP/1.1", 
        "stage": "public", 
        "domainPrefix": "api-devsite", 
        "requestTimeEpoch": 1556011398987, 
        "requestId": "6e88faaa-65a9-11e9-a37f-2f1a39c94577", 
        "identity": {
            "cognitoIdentityPoolId": "", 
            "accountId": "", 
            "cognitoIdentityId": "", 
            "caller": "", 
            "sourceIp": "212.51.159.27", 
            "accessKey": "", 
            "cognitoAuthenticationType": "", 
            "cognitoAuthenticationProvider": "", 
            "userArn": "", 
            "userAgent": "curl/7.54.0",
             "user": ""
        }, 
        "domainName": "api-devsite.hutter.cloud", 
        "apiId": "exhm5ivbi1"
    }, 
    "body": "email=mail%40sebastian-hutter.ch&message=MyMessage", 
    "isBase64Encoded": false
}

